John Doe

Green

Green

Blue
Green
Orange

Orange

Blue

Blue
Orange

Black
Blue
Brown
Gray
Green
Orange
Purple
Red
White
Yellow

Orange

Blue

Black
Blue

Black

Orange
Blue

Red
Orange

Blue
Orange
Yellow

Orange

Green
Blue
Orange

Green
